{
    "prepare_queue": {
        "installed": [],
        "uninstalled": []
    },
    "config_munge": {
        "files": {}
    },
    "installed_plugins": {
        "cordova-plugin-whitelist": {
            "PACKAGE_NAME": "com.agms.pp.customer"
        },
        "cordova-universal-links-plugin": {
            "PACKAGE_NAME": "com.agms.pp.customer"
        },
        "cordova-plugin-customurlscheme": {
            "URL_SCHEME": "perpetualpay",
            "PACKAGE_NAME": "com.agms.pp.customer"
        },
        "cordova-plugin-file-transfer": {
            "PACKAGE_NAME": "com.agms.pp.customer"
        },
        "cordova-plugin-camera": {
            "CAMERA_USAGE_DESCRIPTION": " ",
            "PHOTOLIBRARY_USAGE_DESCRIPTION": " ",
            "PACKAGE_NAME": "com.agms.pp.customer"
        },
        "cordova-plugin-network-information": {
            "PACKAGE_NAME": "com.agms.pp.customer"
        },
        "cordova-plugin-device": {
            "PACKAGE_NAME": "com.agms.pp.customer"
        },
        "cordova-plugin-dialogs": {
            "PACKAGE_NAME": "com.agms.pp.customer"
        },
        "cordova-plugin-x-socialsharing": {
            "PACKAGE_NAME": "com.agms.pp.customer"
        },
        "cordova-plugin-x-toast": {
            "PACKAGE_NAME": "com.agms.pp.customer"
        },
        "cordova-plugin-splashscreen": {
            "PACKAGE_NAME": "com.agms.pp.customer"
        },
        "call-number": {
            "PACKAGE_NAME": "com.agms.pp.customer"
        }
    },
    "dependent_plugins": {
        "cordova-plugin-compat": {
            "PACKAGE_NAME": "com.agms.pp.customer"
        },
        "cordova-plugin-file": {
            "PACKAGE_NAME": "com.agms.pp.customer"
        },
        "es6-promise-plugin": {
            "PACKAGE_NAME": "com.agms.pp.customer"
        }
    }
}