<?xml version="1.0" encoding="utf-8"?>
<!-- Generator: Adobe Illustrator 15.0.0, SVG Export Plug-In . SVG Version: 6.00 Build 0)  -->
<!DOCTYPE svg PUBLIC "-//W3C//DTD SVG 1.1//EN" "http://www.w3.org/Graphics/SVG/1.1/DTD/svg11.dtd">
<svg version="1.1" id="Layer_1" xmlns="http://www.w3.org/2000/svg" xmlns:xlink="http://www.w3.org/1999/xlink" x="0px" y="0px"
	 width="128px" height="128px" viewBox="0 0 128 128" enable-background="new 0 0 128 128" xml:space="preserve">
<path d="M64-0.059c-35.263,0-63.849,28.585-63.849,63.849c0,35.262,28.586,63.849,63.849,63.849s63.849-28.587,63.849-63.849
	C127.849,28.526,99.263-0.059,64-0.059z M97.657,86.114c0,0-8.603,9.063-10.344,10.497c0,0-3.176,2.868-9.68,1.023
	c0,0-17.258-2.815-34.669-23.3c0,0-22.123-26.834-9.833-36.052l7.067-6.811c0,0,3.175-4.148,5.992-0.768
	c0,0,8.04,15.005,8.45,15.772c0,0,0.614,3.79-1.588,4.968l-2.971,3.227c0,0-1.075,0.818,0.563,3.891c0,0,5.583,12.009,20.408,19.538
	c0,0,1.587,0.461,2.304-0.333c0,0,3.893-4.404,4.968-4.814c0,0,2.663-1.331,4.865,0.333c0,0,13.545,7.911,13.647,8.219
	C96.837,81.503,99.706,83.348,97.657,86.114z"/>
</svg>
