<?xml version="1.0" encoding="utf-8"?>
<!-- Generator: Adobe Illustrator 15.0.0, SVG Export Plug-In . SVG Version: 6.00 Build 0)  -->
<!DOCTYPE svg PUBLIC "-//W3C//DTD SVG 1.1//EN" "http://www.w3.org/Graphics/SVG/1.1/DTD/svg11.dtd">
<svg version="1.1" id="Layer_1" xmlns="http://www.w3.org/2000/svg" xmlns:xlink="http://www.w3.org/1999/xlink" x="0px" y="0px"
	 width="285px" height="490px" viewBox="0 0 285 490" enable-background="new 0 0 285 490" xml:space="preserve">
<polygon fill="#FB621A" points="285.093,0.281 245.263,0.281 -0.092,245.319 244.625,489.719 285.093,489.719 285.093,449.25 
	81.48,246.434 285.093,40.53 "/>
</svg>
